{
  "name": "cnc-api",
  "version": "0.1.0",
  "description": "apiDoc for CNC API",
  "url": "https://{apiDomain}/:locale/api/",
  "sampleUrl": false,
  "defaultVersion": "0.0.0",
  "apidoc": "0.3.0",
  "generator": {
    "name": "apidoc",
    "time": "2019-03-12T07:41:48.653Z",
    "url": "http://apidocjs.com",
    "version": "0.17.7"
  }
}
